{
    "total": 200,
    "per_page": 10,
    "current_page": 3,
    "last_page": 20,
    "next_page_url": "https:\/\/vuetable.ratiw.net\/api\/users?sort=salary%7Casc&per_page=10&page=4",
    "prev_page_url": "https:\/\/vuetable.ratiw.net\/api\/users?sort=salary%7Casc&per_page=10&page=2",
    "from": 21,
    "to": 30,
    "data": [{
        "id": 1,
        "name": "Noelia O'Kon",
        "nickname": "asperiores",
        "email": "otho.smitham@example.com",
        "birthdate": "1978-06-28 00:00:00",
        "gender": "F",
        "salary": "13098.00",
        "group_id": 2,
        "created_at": "2017-01-01 07:21:10",
        "updated_at": "2017-01-01 07:21:10",
        "age": 41,
        "group": {
            "id": 2,
            "name": "Exec",
            "description": "Executives"
        },
        "address": {
            "id": 1,
            "user_id": 1,
            "line1": "0888 Aniyah Locks\nLake Bridie, NJ 51086",
            "line2": "Cayman Islands",
            "zipcode": "92991-2805",
            "mobile": "1-742-816-9238x848",
            "fax": "(484)438-4697x8638"
        }
    }, {
        "id": 65,
        "name": "Mr. Westley McDermott DDS",
        "nickname": "possimus",
        "email": "klockman@example.org",
        "birthdate": "1993-11-22 00:00:00",
        "gender": "F",
        "salary": "13181.00",
        "group_id": 3,
        "created_at": "2017-01-01 07:21:10",
        "updated_at": "2017-01-01 07:21:10",
        "age": 26,
        "group": {
            "id": 3,
            "name": "Mgr",
            "description": "Managers"
        },
        "address": {
            "id": 65,
            "user_id": 65,
            "line1": "242 Marguerite Burgs Suite 026\nAlbertoburgh, WI 53544",
            "line2": "Czech Republic",
            "zipcode": "09711",
            "mobile": "(754)323-8005x53939",
            "fax": "571-834-9971"
        }
    }, {
        "id": 57,
        "name": "Linda Goodwin",
        "nickname": "qui",
        "email": "feeney.daisha@example.org",
        "birthdate": "1981-03-28 00:00:00",
        "gender": "F",
        "salary": "13199.00",
        "group_id": 3,
        "created_at": "2017-01-01 07:21:10",
        "updated_at": "2017-01-01 07:21:10",
        "age": 38,
        "group": {
            "id": 3,
            "name": "Mgr",
            "description": "Managers"
        },
        "address": {
            "id": 57,
            "user_id": 57,
            "line1": "11647 Milton Way\nWest Clovismouth, DC 03233",
            "line2": "United States Minor Outlying Islands",
            "zipcode": "55610",
            "mobile": "1-307-678-7085x7244",
            "fax": "032-785-7099x591"
        }
    }, {
        "id": 190,
        "name": "Prof. Turner Daniel",
        "nickname": "at",
        "email": "hammes.wilford@example.net",
        "birthdate": "1980-08-18 00:00:00",
        "gender": "M",
        "salary": "13797.00",
        "group_id": 3,
        "created_at": "2017-01-01 07:21:10",
        "updated_at": "2017-01-01 07:21:10",
        "age": 39,
        "group": {
            "id": 3,
            "name": "Mgr",
            "description": "Managers"
        },
        "address": {
            "id": 190,
            "user_id": 190,
            "line1": "191 Dawn View Suite 467\nMarioburgh, WV 01233-7770",
            "line2": "Sierra Leone",
            "zipcode": "52847-7914",
            "mobile": "107-704-3481x84331",
            "fax": "(168)226-6066x222"
        }
    }, {
        "id": 87,
        "name": "Jessyca Streich",
        "nickname": "ut",
        "email": "bonita.lowe@example.org",
        "birthdate": "1989-04-12 00:00:00",
        "gender": "M",
        "salary": "13824.00",
        "group_id": 1,
        "created_at": "2017-01-01 07:21:10",
        "updated_at": "2017-01-01 07:21:10",
        "age": 30,
        "group": {
            "id": 1,
            "name": "Admin",
            "description": "Administrators"
        },
        "address": {
            "id": 87,
            "user_id": 87,
            "line1": "5213 Goyette Glen\nMarcelohaven, WV 90391",
            "line2": "Gibraltar",
            "zipcode": "11134-2718",
            "mobile": "02958543720",
            "fax": "+70(1)2450912290"
        }
    }, {
        "id": 166,
        "name": "Christelle Hane",
        "nickname": "et",
        "email": "mkoelpin@example.org",
        "birthdate": "1975-08-03 00:00:00",
        "gender": "F",
        "salary": "13967.00",
        "group_id": 5,
        "created_at": "2017-01-01 07:21:10",
        "updated_at": "2017-01-01 07:21:10",
        "age": 44,
        "group": {
            "id": 5,
            "name": "Emp",
            "description": "Employees"
        },
        "address": {
            "id": 166,
            "user_id": 166,
            "line1": "39958 Hobart Flats\nWest Muhammad, MN 64884",
            "line2": "Northern Mariana Islands",
            "zipcode": "53873",
            "mobile": "+32(9)4897690398",
            "fax": "04488410596"
        }
    }, {
        "id": 191,
        "name": "Mrs. Catharine Homenick",
        "nickname": "odio",
        "email": "carolyn91@example.net",
        "birthdate": "1980-08-17 00:00:00",
        "gender": "M",
        "salary": "14012.00",
        "group_id": 1,
        "created_at": "2017-01-01 07:21:11",
        "updated_at": "2017-01-01 07:21:11",
        "age": 39,
        "group": {
            "id": 1,
            "name": "Admin",
            "description": "Administrators"
        },
        "address": {
            "id": 191,
            "user_id": 191,
            "line1": "87201 Murray Ridges Suite 745\nGleichnerhaven, MA 87104",
            "line2": "Bulgaria",
            "zipcode": "21137",
            "mobile": "+20(1)8022253035",
            "fax": "(917)307-4392x53201"
        }
    }, {
        "id": 47,
        "name": "Brooke Purdy",
        "nickname": "cupiditate",
        "email": "bhermiston@example.net",
        "birthdate": "1966-11-19 00:00:00",
        "gender": "M",
        "salary": "14457.00",
        "group_id": 4,
        "created_at": "2017-01-01 07:21:10",
        "updated_at": "2017-01-01 07:21:10",
        "age": 53,
        "group": {
            "id": 4,
            "name": "Sup",
            "description": "Supervisors"
        },
        "address": {
            "id": 47,
            "user_id": 47,
            "line1": "916 Durgan Harbor\nWest Tonyborough, MN 08368",
            "line2": "Serbia",
            "zipcode": "25234",
            "mobile": "(821)777-8137x4048",
            "fax": "(398)917-7496x84537"
        }
    }, {
        "id": 97,
        "name": "Aubree Wolff",
        "nickname": "labore",
        "email": "reina96@example.net",
        "birthdate": "1967-05-12 00:00:00",
        "gender": "F",
        "salary": "14561.00",
        "group_id": 3,
        "created_at": "2017-01-01 07:21:10",
        "updated_at": "2017-01-01 07:21:10",
        "age": 52,
        "group": {
            "id": 3,
            "name": "Mgr",
            "description": "Managers"
        },
        "address": {
            "id": 97,
            "user_id": 97,
            "line1": "97519 Jonathan Fall Suite 183\nKaiaville, OK 52873-3395",
            "line2": "Mayotte",
            "zipcode": "66232-5764",
            "mobile": "1-434-012-2438",
            "fax": "05696556697"
        }
    }, {
        "id": 44,
        "name": "Norma Dibbert",
        "nickname": "amet",
        "email": "eudora36@example.net",
        "birthdate": "1971-01-21 00:00:00",
        "gender": "F",
        "salary": "15661.00",
        "group_id": 1,
        "created_at": "2017-01-01 07:21:10",
        "updated_at": "2017-01-01 07:21:10",
        "age": 49,
        "group": {
            "id": 1,
            "name": "Admin",
            "description": "Administrators"
        },
        "address": {
            "id": 44,
            "user_id": 44,
            "line1": "15405 Haag Haven Suite 047\nBrakusland, WV 81778",
            "line2": "British Virgin Islands",
            "zipcode": "56087-0885",
            "mobile": "08227730599",
            "fax": "1-079-566-2337x670"
        }
    }]
}